First Name,Last Name,City,State,Phone,Email,,,,,,,,,,,,,,,,,,,,
Salman,Ali,Birmingham,AL,111-222-3333,salmanpk.com@gmail.com,,,,,,,,,,,,,,,,,,,,
SalmanPK,COM,Dallas,TX,111-222-4445,salman.falcon@gmail.com,,,,,,,,,,,,,,,,,,,,
Salman,ALI,Dallas,TX,111-222-4445,salman.ali@reavertechnologies.com,,,,,,,,,,,,,,,,,,,,
